0000.000 (0) Opened log file at time: Thu, 27 Aug 2020 19:33:43 +0000 on http://www.oxfordcitysingers.com
0000.002 (0) UpdraftPlus WordPress backup plugin (https://updraftplus.com): 1.16.23 WP: 5.4.2 PHP: 7.1.9 (apache2handler, Linux 5bcaf0f02508 4.4.38-std-1 #1 SMP Mon Dec 12 10:45:29 UTC 2016 x86_64) MySQL: 5.7.19 WPLANG: en_GB Server: Apache/2.4.10 (Debian) safe_mode: 0 max_execution_time: 900 memory_limit: 256M (used: 10.4M | 2M) multisite: N openssl: OpenSSL 1.0.1t  3 May 2016 mcrypt: N LANG: C ZipArchive::addFile: N
0000.004 (0) Free space on disk containing Updraft's temporary directory: 38320.7 MB
0000.007 (0) Tasks: Backup files:  (schedule: weekly) Backup DB: 1 (schedule: daily)
0000.009 (0) Processed schedules. Tasks now: Backup files:  Backup DB: 1
0000.013 (0) Requesting semaphore lock (d) (apparently via scheduler: last_scheduled_action_called_at=1598384276, seconds_ago=172547)
0000.018 (0) Set semaphore last lock (d) time to 2020-08-27 19:33:43
0000.020 (0) Semaphore lock (d) complete
0000.024 (0) Backup run: resumption=0, nonce=aa873fbfb9b9, file_nonce=aa873fbfb9b9 begun at=1598556823 (0s ago), job type=backup
0000.027 (0) Scheduling a resumption (1) after 300 seconds (1598557123) in case this run gets aborted
0000.030 (0) This backup run is not intended for files - skipping
0000.031 (0) Beginning creation of database dump (WordPress DB)
0000.042 (0) Table wp_options: Total expected rows (approximate): 327
0000.066 (0) Table wp_options: Total rows added: 323 in 0.02 seconds
0000.068 (0) Table wp_options: finishing file (backup_2020-08-27-1933_Oxford_City_Singers_aa873fbfb9b9-db-table-wp_options.table.gz - 21.5 KB)
0000.074 (0) Table wp_users: Total expected rows (approximate): 2
0000.080 (0) Table wp_users: Total rows added: 2 in 0.00 seconds
0000.082 (0) Table wp_users: finishing file (backup_2020-08-27-1933_Oxford_City_Singers_aa873fbfb9b9-db-table-wp_users.table.gz - 0.7 KB)
0000.087 (0) Table wp_usermeta: Total expected rows (approximate): 54
0000.091 (0) Table wp_usermeta: Total rows added: 54 in 0.00 seconds
0000.093 (0) Table wp_usermeta: finishing file (backup_2020-08-27-1933_Oxford_City_Singers_aa873fbfb9b9-db-table-wp_usermeta.table.gz - 1.7 KB)
0000.100 (0) Table wp_commentmeta: Total expected rows (approximate): 0
0000.103 (0) Table wp_commentmeta: Total rows added: 0 in 0.00 seconds
0000.104 (0) Table wp_commentmeta: finishing file (backup_2020-08-27-1933_Oxford_City_Singers_aa873fbfb9b9-db-table-wp_commentmeta.table.gz - 0.4 KB)
0000.110 (0) Table wp_comments: Total expected rows (approximate): 0
0000.113 (0) Table wp_comments: Total rows added: 0 in 0.00 seconds
0000.115 (0) Table wp_comments: finishing file (backup_2020-08-27-1933_Oxford_City_Singers_aa873fbfb9b9-db-table-wp_comments.table.gz - 0.5 KB)
0000.120 (0) Table wp_links: Total expected rows (approximate): 0
0000.123 (0) Table wp_links: Total rows added: 0 in 0.00 seconds
0000.125 (0) Table wp_links: finishing file (backup_2020-08-27-1933_Oxford_City_Singers_aa873fbfb9b9-db-table-wp_links.table.gz - 0.4 KB)
0000.129 (0) Table wp_postmeta: Total expected rows (approximate): 556
0000.143 (0) Table wp_postmeta: Total rows added: 556 in 0.01 seconds
0000.144 (0) Table wp_postmeta: finishing file (backup_2020-08-27-1933_Oxford_City_Singers_aa873fbfb9b9-db-table-wp_postmeta.table.gz - 8.9 KB)
0000.150 (0) Table wp_posts: Total expected rows (approximate): 175
0000.181 (0) Table wp_posts: Total rows added: 175 in 0.03 seconds
0000.184 (0) Table wp_posts: finishing file (backup_2020-08-27-1933_Oxford_City_Singers_aa873fbfb9b9-db-table-wp_posts.table.gz - 46 KB)
0000.190 (0) Table wp_term_relationships: Total expected rows (approximate): 42
0000.193 (0) Table wp_term_relationships: Total rows added: 42 in 0.00 seconds
0000.194 (0) Table wp_term_relationships: finishing file (backup_2020-08-27-1933_Oxford_City_Singers_aa873fbfb9b9-db-table-wp_term_relationships.table.gz - 0.5 KB)
0000.201 (0) Table wp_term_taxonomy: Total expected rows (approximate): 10
0000.205 (0) Table wp_term_taxonomy: Total rows added: 10 in 0.00 seconds
0000.206 (0) Table wp_term_taxonomy: finishing file (backup_2020-08-27-1933_Oxford_City_Singers_aa873fbfb9b9-db-table-wp_term_taxonomy.table.gz - 0.6 KB)
0000.211 (0) Table wp_termmeta: Total expected rows (approximate): 0
0000.214 (0) Table wp_termmeta: Total rows added: 0 in 0.00 seconds
0000.216 (0) Table wp_termmeta: finishing file (backup_2020-08-27-1933_Oxford_City_Singers_aa873fbfb9b9-db-table-wp_termmeta.table.gz - 0.4 KB)
0000.220 (0) Table wp_terms: Total expected rows (approximate): 10
0000.225 (0) Table wp_terms: Total rows added: 10 in 0.00 seconds
0000.226 (0) Table wp_terms: finishing file (backup_2020-08-27-1933_Oxford_City_Singers_aa873fbfb9b9-db-table-wp_terms.table.gz - 0.5 KB)
0000.231 (0) Table wp_eo_events: Total expected rows (approximate): 22
0000.235 (0) Table wp_eo_events: Total rows added: 22 in 0.00 seconds
0000.237 (0) Table wp_eo_events: finishing file (backup_2020-08-27-1933_Oxford_City_Singers_aa873fbfb9b9-db-table-wp_eo_events.table.gz - 0.6 KB)
0000.242 (0) Table wp_eo_venuemeta: Total expected rows (approximate): 16
0000.246 (0) Table wp_eo_venuemeta: Total rows added: 16 in 0.00 seconds
0000.247 (0) Table wp_eo_venuemeta: finishing file (backup_2020-08-27-1933_Oxford_City_Singers_aa873fbfb9b9-db-table-wp_eo_venuemeta.table.gz - 0.6 KB)
0000.253 (0) Table wp_tm_taskmeta: Total expected rows (approximate): 0
0000.257 (0) Table wp_tm_taskmeta: Total rows added: 0 in 0.00 seconds
0000.259 (0) Table wp_tm_taskmeta: finishing file (backup_2020-08-27-1933_Oxford_City_Singers_aa873fbfb9b9-db-table-wp_tm_taskmeta.table.gz - 0.4 KB)
0000.264 (0) Table wp_tm_tasks: Total expected rows (approximate): 0
0000.271 (0) Table wp_tm_tasks: Total rows added: 0 in 0.01 seconds
0000.273 (0) Table wp_tm_tasks: finishing file (backup_2020-08-27-1933_Oxford_City_Singers_aa873fbfb9b9-db-table-wp_tm_tasks.table.gz - 0.4 KB)
0000.278 (0) backup_2020-08-27-1933_Oxford_City_Singers_aa873fbfb9b9-db-table-wp_options.table.gz (1/16): adding to final database dump
0000.283 (0) backup_2020-08-27-1933_Oxford_City_Singers_aa873fbfb9b9-db-table-wp_users.table.gz (2/16): adding to final database dump
0000.285 (0) backup_2020-08-27-1933_Oxford_City_Singers_aa873fbfb9b9-db-table-wp_usermeta.table.gz (3/16): adding to final database dump
0000.286 (0) backup_2020-08-27-1933_Oxford_City_Singers_aa873fbfb9b9-db-table-wp_commentmeta.table.gz (4/16): adding to final database dump
0000.288 (0) backup_2020-08-27-1933_Oxford_City_Singers_aa873fbfb9b9-db-table-wp_comments.table.gz (5/16): adding to final database dump
0000.289 (0) backup_2020-08-27-1933_Oxford_City_Singers_aa873fbfb9b9-db-table-wp_links.table.gz (6/16): adding to final database dump
0000.290 (0) backup_2020-08-27-1933_Oxford_City_Singers_aa873fbfb9b9-db-table-wp_postmeta.table.gz (7/16): adding to final database dump
0000.294 (0) backup_2020-08-27-1933_Oxford_City_Singers_aa873fbfb9b9-db-table-wp_posts.table.gz (8/16): adding to final database dump
0000.309 (0) backup_2020-08-27-1933_Oxford_City_Singers_aa873fbfb9b9-db-table-wp_term_relationships.table.gz (9/16): adding to final database dump
0000.311 (0) backup_2020-08-27-1933_Oxford_City_Singers_aa873fbfb9b9-db-table-wp_term_taxonomy.table.gz (10/16): adding to final database dump
0000.312 (0) backup_2020-08-27-1933_Oxford_City_Singers_aa873fbfb9b9-db-table-wp_termmeta.table.gz (11/16): adding to final database dump
0000.313 (0) backup_2020-08-27-1933_Oxford_City_Singers_aa873fbfb9b9-db-table-wp_terms.table.gz (12/16): adding to final database dump
0000.314 (0) backup_2020-08-27-1933_Oxford_City_Singers_aa873fbfb9b9-db-table-wp_eo_events.table.gz (13/16): adding to final database dump
0000.316 (0) backup_2020-08-27-1933_Oxford_City_Singers_aa873fbfb9b9-db-table-wp_eo_venuemeta.table.gz (14/16): adding to final database dump
0000.317 (0) backup_2020-08-27-1933_Oxford_City_Singers_aa873fbfb9b9-db-table-wp_tm_taskmeta.table.gz (15/16): adding to final database dump
0000.318 (0) backup_2020-08-27-1933_Oxford_City_Singers_aa873fbfb9b9-db-table-wp_tm_tasks.table.gz (16/16): adding to final database dump
0000.322 (0) backup_2020-08-27-1933_Oxford_City_Singers_aa873fbfb9b9-db.gz: finished writing out complete database file (72 KB)
0000.327 (0) Total database tables backed up: 16 (backup_2020-08-27-1933_Oxford_City_Singers_aa873fbfb9b9-db.gz, size: 82465, sha1: 5dcc2bb7b5dfb3552057040301f9652c34bd145a, sha256: 3113327afbf7765c840e7f135a5bf4fe375b8a755c83b85fe044138b7d896442)
0000.338 (0) backup_2020-08-27-1933_Oxford_City_Singers_aa873fbfb9b9-db.gz: db: This file has not yet been successfully uploaded: will queue
0000.339 (0) Saving backup history. Total backup size: 80.5 KB
0000.344 (0) Requesting upload of the files that have not yet been successfully uploaded (1)
0000.349 (0) Cloud backup selection (1/1): dropbox with instance (1/1) (last)
0000.352 (0) Beginning dispatch of backup to remote (dropbox) (instance identifier s-044abc7417c439173bbe0f26d74aba47)
0000.353 (0) Dropbox: begin cloud upload (using API version 2 with OAuth v2 token)
0000.357 (0) Dropbox: access gained; setting chunk size to: 1024 KB
0000.861 (0) Dropbox: quota usage: used=39469.4 MB, total=2104704 MB, available=2065234.6 MB
0000.863 (0) Dropbox: Attempt to upload: backup_2020-08-27-1933_Oxford_City_Singers_aa873fbfb9b9-db.gz to: backup_2020-08-27-1933_Oxford_City_Singers_aa873fbfb9b9-db.gz
0002.031 (0) Dropbox chunked upload: 100 % uploaded (AAAAAAAAFaX0xVHH1HvmtQ, 82465, 1024 KB)
0003.672 (0) Recording as successfully uploaded: backup_2020-08-27-1933_Oxford_City_Singers_aa873fbfb9b9-db.gz
0003.675 (0) Deleting local file: backup_2020-08-27-1933_Oxford_City_Singers_aa873fbfb9b9-db.gz: OK
0003.677 (0) Dropbox: File upload success (backup_2020-08-27-1933_Oxford_City_Singers_aa873fbfb9b9-db.gz): 80 KB in 2s (28 KB/s)
0003.681 (0) Retain: beginning examination of existing backup sets; user setting: retain_files=2, retain_db=5
0003.682 (0) Number of backup sets in history: 9; groups (db): 1
0003.683 (0) Examining (for databases) backup set with group_id=0, nonce=aa873fbfb9b9, datestamp=1598556823 (Aug 27 2020 19:33:43)
0003.684 (0) This backup set is the backup set just made, so will not be deleted.
0003.684 (0) Examining (for databases) backup set with group_id=0, nonce=68bc4f2b61d9, datestamp=1598470484 (Aug 26 2020 19:34:44)
0003.684 (0) This backup set remains non-empty (f=1/d=1); will retain in history
0003.685 (0) Examining (for databases) backup set with group_id=0, nonce=c7067accc838, datestamp=1598384276 (Aug 25 2020 19:37:56)
0003.685 (0) This backup set remains non-empty (f=0/d=1); will retain in history
0003.686 (0) Examining (for databases) backup set with group_id=0, nonce=346e8c3ca2a3, datestamp=1598297685 (Aug 24 2020 19:34:45)
0003.686 (0) This backup set remains non-empty (f=0/d=1); will retain in history
0003.686 (0) Examining (for databases) backup set with group_id=0, nonce=7a573fec68db, datestamp=1598211220 (Aug 23 2020 19:33:40)
0003.686 (0) This backup set remains non-empty (f=0/d=1); will retain in history
0003.686 (0) Examining (for databases) backup set with group_id=0, nonce=b1abf6ff55ae, datestamp=1598125178 (Aug 22 2020 19:39:38)
0003.686 (0) 1598125178: db: this set includes a database (backup_2020-08-22-1939_Oxford_City_Singers_b1abf6ff55ae-db.gz); db count is now 5
0003.686 (0) 1598125178: db: over retain limit (5); will delete this database
0003.687 (0) Delete file: backup_2020-08-22-1939_Oxford_City_Singers_b1abf6ff55ae-db.gz, service=dropbox
0003.688 (0) Dropbox: request deletion: backup_2020-08-22-1939_Oxford_City_Singers_b1abf6ff55ae-db.gz
0004.373 (0) Dropbox: delete succeeded
0004.377 (0) This backup set is now empty; will remove from history
0004.378 (0) Deleting log file (log.b1abf6ff55ae.txt)
0004.380 (0) Examining (for databases) backup set with group_id=0, nonce=06cf9ce03036, datestamp=1597865657 (Aug 19 2020 19:34:17)
0004.380 (0) Examining (for databases) backup set with group_id=0, nonce=2915e71e8830, datestamp=1506179415 (Sep 23 2017 15:10:15)
0004.380 (0) Examining (for databases) backup set with group_id=0, nonce=03faba6d14f8, datestamp=1506179305 (Sep 23 2017 15:08:25)
0004.380 (0) Number of backup sets in history: 8; groups (files): 1
0004.381 (0) Examining (for files) backup set with nonce=aa873fbfb9b9, datestamp=1598556823 (Aug 27 2020 19:33:43)
0004.381 (0) This backup set remains non-empty (f=0/d=1); will retain in history
0004.382 (0) Examining (for files) backup set with nonce=68bc4f2b61d9, datestamp=1598470484 (Aug 26 2020 19:34:44)
0004.382 (0) This backup set remains non-empty (f=1/d=1); will retain in history
0004.383 (0) Examining (for files) backup set with nonce=c7067accc838, datestamp=1598384276 (Aug 25 2020 19:37:56)
0004.383 (0) This backup set remains non-empty (f=0/d=1); will retain in history
0004.385 (0) Examining (for files) backup set with nonce=346e8c3ca2a3, datestamp=1598297685 (Aug 24 2020 19:34:45)
0004.385 (0) This backup set remains non-empty (f=0/d=1); will retain in history
0004.385 (0) Examining (for files) backup set with nonce=7a573fec68db, datestamp=1598211220 (Aug 23 2020 19:33:40)
0004.385 (0) This backup set remains non-empty (f=0/d=1); will retain in history
0004.386 (0) Examining (for files) backup set with nonce=06cf9ce03036, datestamp=1597865657 (Aug 19 2020 19:34:17)
0004.386 (0) This backup set remains non-empty (f=1/d=0); will retain in history
0004.387 (0) Examining (for files) backup set with nonce=2915e71e8830, datestamp=1506179415 (Sep 23 2017 15:10:15)
0004.387 (0) This backup set remains non-empty (f=1/d=0); will retain in history
0004.387 (0) Examining (for files) backup set with nonce=03faba6d14f8, datestamp=1506179305 (Sep 23 2017 15:08:25)
0004.387 (0) This backup set remains non-empty (f=1/d=0); will retain in history
0004.387 (0) Retain: saving new backup history (sets now: 8) and finishing retain operation
0004.391 (0) Resume backup (aa873fbfb9b9, 0): finish run
0004.394 (0) Decremented the semaphore (d) by 1
0004.395 (0) Semaphore (d) unlocked
0004.396 (0) There were no errors in the uploads, so the 'resume' event (1) is being unscheduled
0004.399 (0) No email will/can be sent - the user has not configured an email address.
0004.400 (0) The backup apparently succeeded and is now complete
