0000.001 (0) Opened log file at time: Tue, 25 Aug 2020 19:37:56 +0000 on http://www.oxfordcitysingers.com
0000.007 (0) UpdraftPlus WordPress backup plugin (https://updraftplus.com): 1.16.23 WP: 5.4.2 PHP: 7.1.9 (apache2handler, Linux 5bcaf0f02508 4.4.38-std-1 #1 SMP Mon Dec 12 10:45:29 UTC 2016 x86_64) MySQL: 5.7.19 WPLANG: en_GB Server: Apache/2.4.10 (Debian) safe_mode: 0 max_execution_time: 900 memory_limit: 256M (used: 10.4M | 2M) multisite: N openssl: OpenSSL 1.0.1t  3 May 2016 mcrypt: N LANG: C ZipArchive::addFile: N
0000.012 (0) Free space on disk containing Updraft's temporary directory: 38343.3 MB
0000.015 (0) Tasks: Backup files:  (schedule: weekly) Backup DB: 1 (schedule: daily)
0000.017 (0) Processed schedules. Tasks now: Backup files:  Backup DB: 1
0000.021 (0) Requesting semaphore lock (d) (apparently via scheduler: last_scheduled_action_called_at=1598297685, seconds_ago=86591)
0000.024 (0) Set semaphore last lock (d) time to 2020-08-25 19:37:56
0000.025 (0) Semaphore lock (d) complete
0000.031 (0) Backup run: resumption=0, nonce=c7067accc838, file_nonce=c7067accc838 begun at=1598384276 (0s ago), job type=backup
0000.033 (0) Scheduling a resumption (1) after 300 seconds (1598384576) in case this run gets aborted
0000.035 (0) This backup run is not intended for files - skipping
0000.036 (0) Beginning creation of database dump (WordPress DB)
0000.045 (0) Table wp_options: Total expected rows (approximate): 328
0000.068 (0) Table wp_options: Total rows added: 324 in 0.02 seconds
0000.070 (0) Table wp_options: finishing file (backup_2020-08-25-1937_Oxford_City_Singers_c7067accc838-db-table-wp_options.table.gz - 21.6 KB)
0000.082 (0) Table wp_users: Total expected rows (approximate): 2
0000.091 (0) Table wp_users: Total rows added: 2 in 0.01 seconds
0000.093 (0) Table wp_users: finishing file (backup_2020-08-25-1937_Oxford_City_Singers_c7067accc838-db-table-wp_users.table.gz - 0.7 KB)
0000.099 (0) Table wp_usermeta: Total expected rows (approximate): 54
0000.102 (0) Table wp_usermeta: Total rows added: 54 in 0.00 seconds
0000.103 (0) Table wp_usermeta: finishing file (backup_2020-08-25-1937_Oxford_City_Singers_c7067accc838-db-table-wp_usermeta.table.gz - 1.7 KB)
0000.109 (0) Table wp_commentmeta: Total expected rows (approximate): 0
0000.113 (0) Table wp_commentmeta: Total rows added: 0 in 0.00 seconds
0000.114 (0) Table wp_commentmeta: finishing file (backup_2020-08-25-1937_Oxford_City_Singers_c7067accc838-db-table-wp_commentmeta.table.gz - 0.4 KB)
0000.120 (0) Table wp_comments: Total expected rows (approximate): 0
0000.124 (0) Table wp_comments: Total rows added: 0 in 0.00 seconds
0000.126 (0) Table wp_comments: finishing file (backup_2020-08-25-1937_Oxford_City_Singers_c7067accc838-db-table-wp_comments.table.gz - 0.5 KB)
0000.134 (0) Table wp_links: Total expected rows (approximate): 0
0000.138 (0) Table wp_links: Total rows added: 0 in 0.00 seconds
0000.140 (0) Table wp_links: finishing file (backup_2020-08-25-1937_Oxford_City_Singers_c7067accc838-db-table-wp_links.table.gz - 0.4 KB)
0000.145 (0) Table wp_postmeta: Total expected rows (approximate): 556
0000.157 (0) Table wp_postmeta: Total rows added: 556 in 0.01 seconds
0000.160 (0) Table wp_postmeta: finishing file (backup_2020-08-25-1937_Oxford_City_Singers_c7067accc838-db-table-wp_postmeta.table.gz - 8.9 KB)
0000.168 (0) Table wp_posts: Total expected rows (approximate): 175
0000.205 (0) Table wp_posts: Total rows added: 175 in 0.04 seconds
0000.207 (0) Table wp_posts: finishing file (backup_2020-08-25-1937_Oxford_City_Singers_c7067accc838-db-table-wp_posts.table.gz - 46 KB)
0000.213 (0) Table wp_term_relationships: Total expected rows (approximate): 42
0000.219 (0) Table wp_term_relationships: Total rows added: 42 in 0.00 seconds
0000.220 (0) Table wp_term_relationships: finishing file (backup_2020-08-25-1937_Oxford_City_Singers_c7067accc838-db-table-wp_term_relationships.table.gz - 0.5 KB)
0000.226 (0) Table wp_term_taxonomy: Total expected rows (approximate): 10
0000.232 (0) Table wp_term_taxonomy: Total rows added: 10 in 0.00 seconds
0000.234 (0) Table wp_term_taxonomy: finishing file (backup_2020-08-25-1937_Oxford_City_Singers_c7067accc838-db-table-wp_term_taxonomy.table.gz - 0.6 KB)
0000.240 (0) Table wp_termmeta: Total expected rows (approximate): 0
0000.242 (0) Table wp_termmeta: Total rows added: 0 in 0.00 seconds
0000.244 (0) Table wp_termmeta: finishing file (backup_2020-08-25-1937_Oxford_City_Singers_c7067accc838-db-table-wp_termmeta.table.gz - 0.4 KB)
0000.247 (0) Table wp_terms: Total expected rows (approximate): 10
0000.250 (0) Table wp_terms: Total rows added: 10 in 0.00 seconds
0000.252 (0) Table wp_terms: finishing file (backup_2020-08-25-1937_Oxford_City_Singers_c7067accc838-db-table-wp_terms.table.gz - 0.5 KB)
0000.261 (0) Table wp_eo_events: Total expected rows (approximate): 22
0000.265 (0) Table wp_eo_events: Total rows added: 22 in 0.00 seconds
0000.266 (0) Table wp_eo_events: finishing file (backup_2020-08-25-1937_Oxford_City_Singers_c7067accc838-db-table-wp_eo_events.table.gz - 0.6 KB)
0000.271 (0) Table wp_eo_venuemeta: Total expected rows (approximate): 16
0000.276 (0) Table wp_eo_venuemeta: Total rows added: 16 in 0.00 seconds
0000.277 (0) Table wp_eo_venuemeta: finishing file (backup_2020-08-25-1937_Oxford_City_Singers_c7067accc838-db-table-wp_eo_venuemeta.table.gz - 0.6 KB)
0000.282 (0) Table wp_tm_taskmeta: Total expected rows (approximate): 0
0000.285 (0) Table wp_tm_taskmeta: Total rows added: 0 in 0.00 seconds
0000.286 (0) Table wp_tm_taskmeta: finishing file (backup_2020-08-25-1937_Oxford_City_Singers_c7067accc838-db-table-wp_tm_taskmeta.table.gz - 0.4 KB)
0000.292 (0) Table wp_tm_tasks: Total expected rows (approximate): 0
0000.296 (0) Table wp_tm_tasks: Total rows added: 0 in 0.00 seconds
0000.297 (0) Table wp_tm_tasks: finishing file (backup_2020-08-25-1937_Oxford_City_Singers_c7067accc838-db-table-wp_tm_tasks.table.gz - 0.4 KB)
0000.305 (0) backup_2020-08-25-1937_Oxford_City_Singers_c7067accc838-db-table-wp_options.table.gz (1/16): adding to final database dump
0000.322 (0) backup_2020-08-25-1937_Oxford_City_Singers_c7067accc838-db-table-wp_users.table.gz (2/16): adding to final database dump
0000.325 (0) backup_2020-08-25-1937_Oxford_City_Singers_c7067accc838-db-table-wp_usermeta.table.gz (3/16): adding to final database dump
0000.326 (0) backup_2020-08-25-1937_Oxford_City_Singers_c7067accc838-db-table-wp_commentmeta.table.gz (4/16): adding to final database dump
0000.328 (0) backup_2020-08-25-1937_Oxford_City_Singers_c7067accc838-db-table-wp_comments.table.gz (5/16): adding to final database dump
0000.329 (0) backup_2020-08-25-1937_Oxford_City_Singers_c7067accc838-db-table-wp_links.table.gz (6/16): adding to final database dump
0000.330 (0) backup_2020-08-25-1937_Oxford_City_Singers_c7067accc838-db-table-wp_postmeta.table.gz (7/16): adding to final database dump
0000.335 (0) backup_2020-08-25-1937_Oxford_City_Singers_c7067accc838-db-table-wp_posts.table.gz (8/16): adding to final database dump
0000.352 (0) backup_2020-08-25-1937_Oxford_City_Singers_c7067accc838-db-table-wp_term_relationships.table.gz (9/16): adding to final database dump
0000.353 (0) backup_2020-08-25-1937_Oxford_City_Singers_c7067accc838-db-table-wp_term_taxonomy.table.gz (10/16): adding to final database dump
0000.355 (0) backup_2020-08-25-1937_Oxford_City_Singers_c7067accc838-db-table-wp_termmeta.table.gz (11/16): adding to final database dump
0000.357 (0) backup_2020-08-25-1937_Oxford_City_Singers_c7067accc838-db-table-wp_terms.table.gz (12/16): adding to final database dump
0000.358 (0) backup_2020-08-25-1937_Oxford_City_Singers_c7067accc838-db-table-wp_eo_events.table.gz (13/16): adding to final database dump
0000.360 (0) backup_2020-08-25-1937_Oxford_City_Singers_c7067accc838-db-table-wp_eo_venuemeta.table.gz (14/16): adding to final database dump
0000.361 (0) backup_2020-08-25-1937_Oxford_City_Singers_c7067accc838-db-table-wp_tm_taskmeta.table.gz (15/16): adding to final database dump
0000.363 (0) backup_2020-08-25-1937_Oxford_City_Singers_c7067accc838-db-table-wp_tm_tasks.table.gz (16/16): adding to final database dump
0000.366 (0) backup_2020-08-25-1937_Oxford_City_Singers_c7067accc838-db.gz: finished writing out complete database file (72 KB)
0000.374 (0) Total database tables backed up: 16 (backup_2020-08-25-1937_Oxford_City_Singers_c7067accc838-db.gz, size: 82582, sha1: 88a2879ac4f97138494d67e9e22bd23cd99e20f6, sha256: 583c9a89f711a394004934f7a5d41776265ab3b043b6ba047490c6f3c27c5d7b)
0000.386 (0) backup_2020-08-25-1937_Oxford_City_Singers_c7067accc838-db.gz: db: This file has not yet been successfully uploaded: will queue
0000.388 (0) Saving backup history. Total backup size: 80.6 KB
0000.394 (0) Requesting upload of the files that have not yet been successfully uploaded (1)
0000.398 (0) Cloud backup selection (1/1): dropbox with instance (1/1) (last)
0000.400 (0) Beginning dispatch of backup to remote (dropbox) (instance identifier s-044abc7417c439173bbe0f26d74aba47)
0000.402 (0) Dropbox: begin cloud upload (using API version 2 with OAuth v2 token)
0000.405 (0) Dropbox: access gained; setting chunk size to: 1024 KB
0000.951 (0) Dropbox: quota usage: used=39464.2 MB, total=2104704 MB, available=2065239.8 MB
0000.953 (0) Dropbox: Attempt to upload: backup_2020-08-25-1937_Oxford_City_Singers_c7067accc838-db.gz to: backup_2020-08-25-1937_Oxford_City_Singers_c7067accc838-db.gz
0001.686 (0) Dropbox chunked upload: 100 % uploaded (AAAAAAAAFaDguDQ3VNiRVw, 82582, 1024 KB)
0003.134 (0) Recording as successfully uploaded: backup_2020-08-25-1937_Oxford_City_Singers_c7067accc838-db.gz
0003.138 (0) Deleting local file: backup_2020-08-25-1937_Oxford_City_Singers_c7067accc838-db.gz: OK
0003.139 (0) Dropbox: File upload success (backup_2020-08-25-1937_Oxford_City_Singers_c7067accc838-db.gz): 80 KB in 2s (36 KB/s)
0003.149 (0) Retain: beginning examination of existing backup sets; user setting: retain_files=2, retain_db=5
0003.151 (0) Number of backup sets in history: 10; groups (db): 1
0003.152 (0) Examining (for databases) backup set with group_id=0, nonce=c7067accc838, datestamp=1598384276 (Aug 25 2020 19:37:56)
0003.153 (0) This backup set is the backup set just made, so will not be deleted.
0003.154 (0) Examining (for databases) backup set with group_id=0, nonce=346e8c3ca2a3, datestamp=1598297685 (Aug 24 2020 19:34:45)
0003.154 (0) This backup set remains non-empty (f=0/d=1); will retain in history
0003.155 (0) Examining (for databases) backup set with group_id=0, nonce=7a573fec68db, datestamp=1598211220 (Aug 23 2020 19:33:40)
0003.155 (0) This backup set remains non-empty (f=0/d=1); will retain in history
0003.155 (0) Examining (for databases) backup set with group_id=0, nonce=b1abf6ff55ae, datestamp=1598125178 (Aug 22 2020 19:39:38)
0003.155 (0) This backup set remains non-empty (f=0/d=1); will retain in history
0003.156 (0) Examining (for databases) backup set with group_id=0, nonce=ff507cc852db, datestamp=1598038662 (Aug 21 2020 19:37:42)
0003.156 (0) This backup set remains non-empty (f=0/d=1); will retain in history
0003.156 (0) Examining (for databases) backup set with group_id=0, nonce=cb364658c059, datestamp=1597952124 (Aug 20 2020 19:35:24)
0003.156 (0) 1597952124: db: this set includes a database (backup_2020-08-20-1935_Oxford_City_Singers_cb364658c059-db.gz); db count is now 5
0003.156 (0) 1597952124: db: over retain limit (5); will delete this database
0003.156 (0) Delete file: backup_2020-08-20-1935_Oxford_City_Singers_cb364658c059-db.gz, service=dropbox
0003.157 (0) Dropbox: request deletion: backup_2020-08-20-1935_Oxford_City_Singers_cb364658c059-db.gz
0003.866 (0) Dropbox: delete succeeded
0003.870 (0) This backup set is now empty; will remove from history
0003.871 (0) Deleting log file (log.cb364658c059.txt)
0003.873 (0) Examining (for databases) backup set with group_id=0, nonce=06cf9ce03036, datestamp=1597865657 (Aug 19 2020 19:34:17)
0003.873 (0) Examining (for databases) backup set with group_id=0, nonce=f17a6703644c, datestamp=1597260971 (Aug 12 2020 19:36:11)
0003.873 (0) Examining (for databases) backup set with group_id=0, nonce=2915e71e8830, datestamp=1506179415 (Sep 23 2017 15:10:15)
0003.873 (0) Examining (for databases) backup set with group_id=0, nonce=03faba6d14f8, datestamp=1506179305 (Sep 23 2017 15:08:25)
0003.873 (0) Number of backup sets in history: 9; groups (files): 1
0003.874 (0) Examining (for files) backup set with nonce=c7067accc838, datestamp=1598384276 (Aug 25 2020 19:37:56)
0003.874 (0) This backup set remains non-empty (f=0/d=1); will retain in history
0003.876 (0) Examining (for files) backup set with nonce=346e8c3ca2a3, datestamp=1598297685 (Aug 24 2020 19:34:45)
0003.876 (0) This backup set remains non-empty (f=0/d=1); will retain in history
0003.876 (0) Examining (for files) backup set with nonce=7a573fec68db, datestamp=1598211220 (Aug 23 2020 19:33:40)
0003.876 (0) This backup set remains non-empty (f=0/d=1); will retain in history
0003.876 (0) Examining (for files) backup set with nonce=b1abf6ff55ae, datestamp=1598125178 (Aug 22 2020 19:39:38)
0003.876 (0) This backup set remains non-empty (f=0/d=1); will retain in history
0003.876 (0) Examining (for files) backup set with nonce=ff507cc852db, datestamp=1598038662 (Aug 21 2020 19:37:42)
0003.876 (0) This backup set remains non-empty (f=0/d=1); will retain in history
0003.877 (0) Examining (for files) backup set with nonce=06cf9ce03036, datestamp=1597865657 (Aug 19 2020 19:34:17)
0003.877 (0) This backup set remains non-empty (f=1/d=0); will retain in history
0003.878 (0) Examining (for files) backup set with nonce=f17a6703644c, datestamp=1597260971 (Aug 12 2020 19:36:11)
0003.878 (0) This backup set remains non-empty (f=1/d=0); will retain in history
0003.878 (0) Examining (for files) backup set with nonce=2915e71e8830, datestamp=1506179415 (Sep 23 2017 15:10:15)
0003.878 (0) This backup set remains non-empty (f=1/d=0); will retain in history
0003.878 (0) Examining (for files) backup set with nonce=03faba6d14f8, datestamp=1506179305 (Sep 23 2017 15:08:25)
0003.878 (0) This backup set remains non-empty (f=1/d=0); will retain in history
0003.878 (0) Retain: saving new backup history (sets now: 9) and finishing retain operation
0003.884 (0) Resume backup (c7067accc838, 0): finish run
0003.886 (0) Decremented the semaphore (d) by 1
0003.888 (0) Semaphore (d) unlocked
0003.889 (0) There were no errors in the uploads, so the 'resume' event (1) is being unscheduled
0003.894 (0) No email will/can be sent - the user has not configured an email address.
0003.895 (0) The backup apparently succeeded and is now complete
